============================================================================================================================================================================================================================================================
 Language                                                                                                                                                                                         Files        Lines         Code     Comments       Blanks
============================================================================================================================================================================================================================================================
 Markdown                                                                                                                                                                                             1           92            0           59           33
------------------------------------------------------------------------------------------------------------------------------------------------------------------------------------------------------------------------------------------------------------
 ./README.md                                                                                                                                                                                                      92            0           59           33
------------------------------------------------------------------------------------------------------------------------------------------------------------------------------------------------------------------------------------------------------------
 Plain Text                                                                                                                                                                                          15           39            0           38            1
------------------------------------------------------------------------------------------------------------------------------------------------------------------------------------------------------------------------------------------------------------
 ./documentation/placeholder.txt                                                                                                                                                                                   0            0            0            0
 ./security.txt                                                                                                                                                                                                    1            0            1            0
 ./documentation/scorecard/placeholder.txt                                                                                                                                                                         0            0            0            0
 ./documentation/robots.txt                                                                                                                                                                                        1            0            1            0
 ./dep/placeholder.txt                                                                                                                                                                                             0            0            0            0
 ./robots.txt                                                                                                                                                                                                      1            0            1            0
 ./content_long_list.txt                                                                                                                                                                                           0            0            0            0
 ./src/placeholder.txt                                                                                                                                                                                             0            0            0            0
 ./tools/placeholder.txt                                                                                                                                                                                           0            0            0            0
 ./test/placeholder.txt                                                                                                                                                                                            0            0            0            0
 ./content_summary.txt                                                                                                                                                                                             8            0            8            0
 ./structure.txt                                                                                                                                                                                                  28            0           27            1
 ./example/placeholder.txt                                                                                                                                                                                         0            0            0            0
 ./res/placeholder.txt                                                                                                                                                                                             0            0            0            0
 ./dataset/placeholder.txt                                                                                                                                                                                         0            0            0            0
============================================================================================================================================================================================================================================================
 Total                                                                                                                                                                                               16          131            0           97           34
============================================================================================================================================================================================================================================================
